[
    {"id":"1","type":"boiler","text":"bol"},
    {"id":"2","type":"heatpump","text":"heat"},
    {"id":"3","type":"vsd","text":"vsd"},
    {"id":"4","type":"chiler","text":"chl"},
    {"id":"5","type":"AHU","text":"ahu"}
]