[
    {"field_id":"1","sensor_name":"PT100","tag":"t","f_name":"PT","unit":"C","type":"sensor"},
    {"field_id":"2","sensor_name":"Dry Contact","tag":"d","f_name":"DRY" ,"unit":"","type":"sensor"},
    {"field_id":"3","sensor_name":"PT Pressure","tag":"ps","f_name":"PS","unit":"%","type":"sensor"},
    {"field_id":"4","sensor_name":"Scheider PM2230","tag":"m","f_name":"METER","type":"sensor"},
    {"field_id":"5","sensor_name":"Flow Meter","tag":"fl","f_name":"FL" ,"unit":"L","type":"sensor"},
    {"field_id":"6","sensor_name":"Output RR","tag":"r","f_name":"OUT" ,"unit":"","type":"io"},
    {"field_id":"7","sensor_name":"SMT Room Temp","tag":"smr","f_name":"SMR" ,"unit":"C","type":"sensor"},
    {"field_id":"8","sensor_name":"SMT Set Temp","tag":"sms","f_name":"SMS" ,"unit":"C","type":"sensor"},
    {"field_id":"9","sensor_name":"SMT v out","tag":"smv","f_name":"SMV" ,"unit":"v","type":"sensor"},
    {"field_id":"101","sensor_name":"Meter","tag":"v","f_name":"MV" ,"unit":"V","type":"sensor"},
    {"field_id":"102","sensor_name":"Meter","tag":"i","f_name":"MI" ,"unit":"A","type":"sensor"},
    {"field_id":"103","sensor_name":"Meter","tag":"p","f_name":"MP" ,"unit":"kW","type":"sensor"},
    {"field_id":"104","sensor_name":"Meter","tag":"e","f_name":"ME" ,"unit":"WH","type":"sensor"},
    {"field_id":"50","sensor_name":"Temp Control","tag":"st","f_name":"SMTT" ,"unit":"","type":"analog"},
    {"field_id":"201","sensor_name":"vsd","tag":"cf","f_name":"CF" ,"unit":"C","type":"sensor"},
    {"field_id":"202","sensor_name":"vsd","tag":"fc","f_name":"FC" ,"unit":"0:Normal ,etc :error","type":"sensor"},
    {"field_id":"203","sensor_name":"vsd","tag":"fo","f_name":"FO" ,"unit":"็Hz","type":"sensor"},
    {"field_id":"204","sensor_name":"vsd","tag":"iv","f_name":"IV" ,"unit":"C","type":"sensor"},
    {"field_id":"205","sensor_name":"vsd","tag":"rn","f_name":"RN" ,"unit":"0:Not run,1:Running","type":"sensor"},
    {"field_id":"206","sensor_name":"vsd","tag":"spm","f_name":"SPM" ,"unit":"RPM","type":"sensor"},
    {"field_id":"207","sensor_name":"vsd","tag":"vst","f_name":"VST" ,"unit":"RPM","type":"analog"}
    
]